<?xml version="1.0" encoding="utf-8"?>
<!-- Generator: Adobe Illustrator 18.1.0, SVG Export Plug-In . SVG Version: 6.00 Build 0)  -->
<svg version="1.1" id="Layer_1" xmlns="http://www.w3.org/2000/svg" xmlns:xlink="http://www.w3.org/1999/xlink" x="0px" y="0px"
	 viewBox="0 176.2 570 399.6" enable-background="new 0 176.2 570 399.6" xml:space="preserve">
<g>
	<g>
		<g>
			<rect y="176.2" fill="#FFFFFF" width="570" height="399.6"/>
		</g>
	</g>
	<g>
		<g enable-background="new    ">
			<path fill="#82231F" d="M217.8,313.8c-4.4,4.4-9.6,5.8-16.2,5.8c-9.4,0-15.3-2.8-16.6-11.7l-1.6-10.7c-1.3-8.8-3.1-15.3-8.6-15.3
				h-4.9v24.8c0,7.8,1.2,8.9,7.7,9.3v2.2c-4.2-0.2-11.3-0.3-18-0.3c-7.8,0-15.1,0.1-19.2,0.3V316c6.6-0.3,7.7-1.4,7.7-9.3v-53.5
				c0-7.8-1.2-8.9-7.7-9.3v-2.2c4.1,0.2,11.7,0.3,18.6,0.3c7.2,0,14.5-0.2,17.3-0.2c21.9,0,32.5,6.1,32.5,18.7
				c0,9.5-5.8,18.9-26.4,20.9c14.7,0.8,21.9,5.3,23.6,14.1l2.3,11.2c1.1,5.4,2.4,7,4.8,7c1.4,0,2.4-0.4,3.3-1.4L217.8,313.8z
				 M169.9,253.2v26.5h2.9c11,0,13.3-8,13.3-17.9c0-11.3-2.7-17.9-10.4-17.9C170.9,244,169.9,245.8,169.9,253.2z"/>
			<path fill="#82231F" d="M265.1,244.6c1.7,1,2.7,1.5,3.7,1.5c1.4,0,1.9-1.6,2.4-4.7h2.5c-0.3,4.6-0.5,10.1-0.5,26.3h-2.5
				c-0.8-11.9-7.6-24.5-18.8-24.5c-6.3,0-11,3.5-11,10c0,8,5.4,11.2,19,20.7c9.6,6.7,17.5,12.6,17.5,24.4
				c0,14.6-13.6,21.4-29.3,21.4c-9.8,0-15.1-2.1-19.1-4c-1.7-1.1-2.8-1.5-3.6-1.5c-1.4,0-1.9,1.6-2.4,4.7h-2.5
				c0.3-5.5,0.5-12.8,0.5-31.3h2.5c0.8,15.2,5.8,28.8,19.6,28.8c7.9,0,13-3.8,13-10.5c0-8.9-6.6-14.2-15.7-20.3
				c-10.2-6.8-19.2-13.1-19.2-25c0-14.1,12.8-20.4,26.7-20.4C257,240.3,261.5,242.6,265.1,244.6z"/>
			<path fill="#82231F" d="M355.7,241.8v2.2c-3.4,1.6-7.6,5.9-10.8,15.1l-21,59.1c-1.7-0.1-3.8-0.2-5.7-0.2c-1.9,0-3.9,0.1-5.6,0.2
				l-28.3-67.3c-2.1-4.9-4.4-6.8-6.4-6.9v-2.2c5.2,0.2,12.5,0.3,19.6,0.3c7.3,0,14.2-0.1,18.1-0.3v2.2c-4.8,0.2-7.6,0.8-7.6,3.9
				c0,1.3,0.4,2.9,1.3,5.1l18.7,46l10.4-29.4c2.4-6.9,3.5-12.1,3.5-16c0-6.7-3.3-9.4-8.8-9.6v-2.2c5.4,0.2,9.2,0.3,14.1,0.3
				C350.2,242.1,353.5,242,355.7,241.8z"/>
			<path fill="#82231F" d="M386.9,305.6c0,8.8,2.1,10.1,12,10.1v2.5c-4.8-0.1-13.3-0.3-22.2-0.3c-6.6,0-13.5,0.2-19.3,0.3V316
				c6.6-0.3,7.7-1.4,7.7-9.3v-53.5c0-7.8-1.2-8.9-7.7-9.3v-2.2c4.1,0.2,11.7,0.3,18.6,0.3c7.2,0,14.5-0.2,17.3-0.2
				c21.9,0,32.5,8.7,32.5,21.3c0,10.4-7.3,24.1-34.8,24.1h-4V305.6z M386.9,253.2v31.9h2.9c11,0,13.3-9.8,13.3-20.8
				c0-13.6-2.7-20.4-10.4-20.4C387.9,244,386.9,245.8,386.9,253.2z"/>
		</g>
		<g>
			<g enable-background="new    ">
				<path d="M255.1,406.7c-0.3,0.8-0.6,1.7-0.7,2.1c-0.2,0.5-0.3,1-0.3,1.4h-0.4c0.1-0.7,0.2-1.2,0.2-1.7c0-1.1-0.4-1.5-1.9-1.5
					h-0.9c-1.1,0-1.4,0.2-1.7,1.4l-1.1,4.1h1.2c1.5,0,1.8-1.4,2.1-2.2h0.4c-0.4,1.3-0.5,1.8-0.7,2.4c-0.1,0.6-0.3,1.1-0.5,2.4h-0.4
					c0.1-0.4,0.1-0.8,0.1-1.2c0-0.6-0.2-1-1.1-1h-1.2l-1,3.8c-0.1,0.3-0.1,0.6-0.1,0.7c0,0.6,0.4,0.7,1.4,0.7l-0.1,0.3
					c-0.6,0-1.6,0-2.5,0c-0.9,0-1.6,0-2.1,0l0.1-0.3c1.1,0,1.4-0.2,1.7-1.4l2.2-8.3c0.1-0.4,0.1-0.6,0.1-0.8c0-0.5-0.3-0.6-1.1-0.6
					l0.1-0.3c1.6,0,3.8,0,4.8,0C252.8,406.8,254.1,406.8,255.1,406.7z"/>
				<path d="M262.5,415.9l-0.4,1.2c-0.5,1.4-1.3,1.7-2,1.7c-0.4,0-0.7-0.2-0.9-0.5c-0.1-0.1-0.1-0.3-0.1-0.5c0-0.3,0.1-0.8,0.2-1.4
					l0.5-2.1c-1.3,3.3-2.5,4.4-3.9,4.4c-1,0-1.4-0.5-1.4-1.3c0-0.4,0.1-0.8,0.2-1.2l1.6-4.9c0.1-0.3,0.1-0.5,0.1-0.6
					c0-0.3-0.1-0.4-0.4-0.4c-0.4,0-0.8,0.4-1.3,1.7l-0.2,0.6h-0.3l0.4-1.2c0.5-1.4,1.3-1.7,2-1.7c0.9,0,1.2,0.4,1.2,1
					c0,0.4-0.1,0.8-0.3,1.3l-1.6,4.8c-0.1,0.3-0.2,0.6-0.2,0.8c0,0.4,0.2,0.6,0.5,0.6c1.3,0,3.1-3,4.3-7.3l0.3-1
					c0.6,0,1.1-0.1,1.5-0.2l-2.1,7.4c-0.1,0.3-0.1,0.5-0.1,0.7c0,0.2,0.1,0.4,0.4,0.4c0.5,0,0.9-0.5,1.3-1.7l0.2-0.6H262.5z"/>
				<path d="M265,417.1c-0.1,0.2-0.1,0.4-0.1,0.6c0,0.3,0.1,0.4,0.4,0.4c0.4,0,0.8-0.4,1.2-1.7l0.2-0.6h0.3l-0.4,1.2
					c-0.4,1.3-1.2,1.7-2,1.7c-0.9,0-1.2-0.5-1.2-1.1c0-0.4,0.1-0.8,0.2-1.3l2.7-9c0-0.2,0.1-0.3,0.1-0.5c0-0.4-0.3-0.6-1.1-0.6
					l0.1-0.4c1.2,0,2.1-0.3,3-0.7L265,417.1z"/>
				<path d="M269.6,417.1c-0.1,0.2-0.1,0.4-0.1,0.6c0,0.3,0.1,0.4,0.4,0.4c0.4,0,0.8-0.4,1.2-1.7l0.2-0.6h0.3l-0.4,1.2
					c-0.4,1.3-1.2,1.7-2,1.7c-0.9,0-1.2-0.5-1.2-1.1c0-0.4,0.1-0.8,0.2-1.3l2.7-9c0-0.2,0.1-0.3,0.1-0.5c0-0.4-0.3-0.6-1.1-0.6
					l0.1-0.4c1.2,0,2.1-0.3,3-0.7L269.6,417.1z"/>
				<path d="M291.4,406.8c0,0.6-0.3,1.2-1,1.2c-0.5,0-0.6-0.4-0.6-0.7c0-0.4,0.3-0.8,0.5-1.1h0c-0.6,0-1,0.4-1.4,0.8
					c-1,1.5-2.1,5.3-3.4,11.5h-0.4l-3.8-10.8c-0.9,4.5-2,9.6-2.9,10.9c-0.4,0.5-0.9,1.1-1.8,1.1c-0.8,0-1-0.4-1-0.9
					c0-0.6,0.3-1.2,1-1.2c0.5,0,0.6,0.4,0.6,0.7c0,0.4-0.3,0.8-0.5,1.1h0c0.6,0,1.1-0.3,1.4-0.9c0.9-1.4,1.8-5.4,2.8-10.4
					c0-0.1,0-0.3,0-0.4c0-0.6-0.3-0.7-1.3-0.7l0.1-0.3c0.4,0,0.9,0,1.5,0c0.5,0,1,0,1.4,0l3.2,9.2c0.8-3.4,1.8-7.4,2.8-8.9
					c0.4-0.6,1-1.1,1.8-1.1C291.1,406,291.4,406.4,291.4,406.8z"/>
				<path d="M296.6,415.8l-0.4,1.2c-0.5,1.3-1.3,1.7-1.9,1.7c-0.4,0-0.8-0.2-0.9-0.4c-0.1-0.2-0.1-0.4-0.1-0.6
					c0-0.4,0.1-0.9,0.3-1.3l0.3-1.2c-1.1,2.6-2.2,3.6-3.4,3.6c-1.1,0-1.6-0.8-1.6-2c0-2.7,2.4-7,4.9-7c0.6,0,1,0.4,1.1,1.2l0.3-1
					c0.5,0,1.1-0.1,1.5-0.2l-2.1,7.4c0,0.1-0.1,0.4-0.1,0.6c0,0.2,0.1,0.4,0.4,0.4c0.4,0,0.9-0.4,1.3-1.7l0.2-0.6H296.6z
					 M294.3,413.1l0.3-1.2c0-0.1,0-0.3,0-0.4c0-0.9-0.3-1.5-0.9-1.5c-1.5,0-3.4,4-3.4,6.9c0,1,0.2,1.3,0.6,1.3
					C291.8,418.3,293.4,415.9,294.3,413.1z"/>
				<path d="M309.7,417.1c-0.5,1.4-1.3,1.7-2,1.7c-0.5,0-0.9-0.2-1-0.5c-0.1-0.2-0.1-0.4-0.1-0.6c0-0.4,0.1-0.8,0.3-1.3l1.6-4.8
					c0.1-0.3,0.2-0.6,0.2-0.9c0-0.3-0.1-0.5-0.4-0.5c-1.3,0-3,3.3-4.5,8l0-0.1l-0.1,0.4H302l2.1-6.9c0.1-0.3,0.2-0.6,0.2-0.9
					c0-0.3-0.1-0.5-0.5-0.5c-1.2,0-3,3.2-4.2,7.2l-0.3,1.1H298l2-7.2c0-0.1,0.1-0.4,0.1-0.6c0-0.2-0.1-0.4-0.4-0.4
					c-0.5,0-0.9,0.5-1.3,1.7l-0.2,0.6h-0.3l0.4-1.2c0.5-1.4,1.3-1.7,2-1.7c0.8,0,1,0.4,1,1c0,0.4-0.1,0.9-0.2,1.3l-0.5,2.1
					c1.3-3.3,2.4-4.4,3.9-4.4c0.8,0,1.1,0.5,1.1,1.2c0,0.4-0.1,0.9-0.2,1.3l-0.6,2.2c1.4-3.4,2.4-4.7,4-4.7c0.9,0,1.2,0.6,1.2,1.2
					c0,0.4-0.1,0.9-0.2,1.3l-1.6,4.9c-0.1,0.3-0.1,0.5-0.1,0.6c0,0.3,0.1,0.4,0.4,0.4c0.4,0,0.8-0.4,1.3-1.7l0.2-0.6h0.3
					L309.7,417.1z"/>
				<path d="M312.9,414.9c-0.1,0.5-0.2,1.1-0.2,1.6c0,1.1,0.4,1.6,1.2,1.6c0.8,0,1.7-0.4,2.6-1.7l0.3,0.1c-0.7,1.1-1.9,2.2-3.4,2.2
					c-1.4,0-2.2-0.8-2.2-2.4c0-2.4,2.3-6.7,5.5-6.7c0.7,0,1.2,0.4,1.2,1.1C317.9,412.9,314.8,414.2,312.9,414.9z M312.9,414.6
					c1-0.3,1.8-0.7,2.3-1.1c0.8-0.6,1.3-1.6,1.3-2.7c0-0.6-0.1-0.8-0.3-0.8C315.2,410.1,313.6,412.2,312.9,414.6z"/>
			</g>
			<line fill="none" stroke="#000000" x1="126.5" y1="398.8" x2="437.5" y2="398.8"/>
		</g>
		<g>
			<g enable-background="new    ">
				<path d="M271.6,466c-0.3,0.8-0.5,1.6-0.6,2c-0.1,0.4-0.2,0.8-0.2,1h-0.4c0.1-0.5,0.1-1,0.1-1.3c0-0.9-0.4-1.3-1.7-1.3h-1.2
					c-1.1,0-1.4,0.2-1.7,1.4l-1.1,3.9h1.1c1.5,0,1.8-1.4,2.1-2.2h0.4c-0.4,1.3-0.5,1.8-0.7,2.4c-0.2,0.5-0.3,1.1-0.5,2.4h-0.4
					c0.1-0.4,0.1-0.8,0.1-1.1c0-0.6-0.2-1.1-1.2-1.1h-1.1l-1.1,4c-0.1,0.4-0.1,0.6-0.1,0.8c0,0.5,0.3,0.6,1.1,0.6h1.2
					c2.1,0,2.7-0.8,3.5-3h0.4c-0.1,0.3-0.3,0.7-0.4,1.2c-0.1,0.4-0.3,1.3-0.4,2.1c-1.1,0-2.7,0-3.8,0c-1,0-3.2,0-4.8,0l0.1-0.3
					c1.1,0,1.4-0.2,1.7-1.4l2.2-8.3c0.1-0.4,0.1-0.6,0.1-0.8c0-0.5-0.3-0.6-1.1-0.6l0.1-0.3c1.6,0,3.8,0,4.8,0
					C269.3,466.1,270.6,466.1,271.6,466z"/>
				<path d="M283.3,476.4c-0.5,1.4-1.3,1.7-2,1.7c-0.5,0-0.9-0.2-1-0.5c-0.1-0.2-0.1-0.4-0.1-0.6c0-0.4,0.1-0.8,0.3-1.3l1.6-4.8
					c0.1-0.3,0.2-0.6,0.2-0.9c0-0.3-0.1-0.5-0.4-0.5c-1.3,0-3,3.3-4.5,8l0-0.1l-0.1,0.4h-1.5l2.1-6.9c0.1-0.3,0.2-0.6,0.2-0.9
					c0-0.3-0.1-0.5-0.5-0.5c-1.2,0-3,3.2-4.2,7.2l-0.3,1.1h-1.5l2-7.2c0-0.1,0.1-0.4,0.1-0.6c0-0.2-0.1-0.4-0.4-0.4
					c-0.5,0-0.9,0.5-1.3,1.7l-0.2,0.6h-0.3l0.4-1.2c0.5-1.4,1.3-1.7,2-1.7c0.8,0,1,0.4,1,1c0,0.4-0.1,0.9-0.2,1.3l-0.5,2.1
					c1.3-3.3,2.4-4.4,3.9-4.4c0.8,0,1.1,0.5,1.1,1.2c0,0.4-0.1,0.9-0.2,1.3l-0.6,2.2c1.4-3.4,2.4-4.7,4-4.7c0.9,0,1.2,0.6,1.2,1.2
					c0,0.4-0.1,0.9-0.2,1.3l-1.6,4.9c-0.1,0.3-0.1,0.5-0.1,0.6c0,0.3,0.1,0.4,0.4,0.4c0.4,0,0.8-0.4,1.3-1.7l0.2-0.6h0.3
					L283.3,476.4z"/>
				<path d="M292.5,475.1l-0.4,1.2c-0.5,1.3-1.3,1.7-1.9,1.7c-0.4,0-0.8-0.2-0.9-0.4c-0.1-0.2-0.1-0.4-0.1-0.6
					c0-0.4,0.1-0.9,0.3-1.3l0.3-1.2c-1.1,2.6-2.2,3.6-3.4,3.6c-1.1,0-1.6-0.8-1.6-2c0-2.7,2.4-7,4.9-7c0.6,0,1,0.4,1.1,1.2l0.3-1
					c0.5,0,1.1-0.1,1.5-0.2l-2.1,7.4c0,0.1-0.1,0.4-0.1,0.6c0,0.2,0.1,0.4,0.4,0.4c0.4,0,0.9-0.4,1.3-1.7l0.2-0.6H292.5z
					 M290.2,472.4l0.3-1.2c0-0.1,0-0.3,0-0.4c0-0.9-0.3-1.5-0.9-1.5c-1.5,0-3.4,4-3.4,6.9c0,1,0.2,1.3,0.6,1.3
					C287.7,477.5,289.4,475.2,290.2,472.4z"/>
				<path d="M296,470.7c0.1-0.2,0.1-0.4,0.1-0.6c0-0.3-0.1-0.4-0.4-0.4c-0.5,0-0.9,0.6-1.3,1.7l-0.2,0.6h-0.3l0.4-1.2
					c0.5-1.4,1.4-1.7,2.1-1.7c0.8,0,1.1,0.5,1.1,1c0,0.4-0.1,0.9-0.3,1.3l-1.8,5.1c-0.1,0.2-0.1,0.4-0.1,0.6c0,0.3,0.1,0.4,0.4,0.4
					c0.4,0,0.8-0.4,1.3-1.7l0.2-0.6h0.3l-0.4,1.2c-0.5,1.3-1.3,1.7-2.1,1.7c-0.9,0-1.2-0.4-1.2-1c0-0.4,0.1-0.8,0.3-1.3L296,470.7z
					 M297.7,465.1c0.5,0,0.8,0.4,0.8,0.9c0,0.7-0.6,1.3-1.3,1.3c-0.5,0-0.8-0.4-0.8-0.9C296.5,465.7,297.1,465.1,297.7,465.1z"/>
				<path d="M300.1,476.4c-0.1,0.2-0.1,0.4-0.1,0.6c0,0.3,0.1,0.4,0.4,0.4c0.4,0,0.8-0.4,1.2-1.7l0.2-0.6h0.3l-0.4,1.2
					c-0.4,1.3-1.2,1.7-2,1.7c-0.9,0-1.2-0.5-1.2-1.1c0-0.4,0.1-0.8,0.2-1.3l2.7-9c0-0.2,0.1-0.3,0.1-0.5c0-0.4-0.3-0.6-1.1-0.6
					l0.1-0.4c1.2,0,2.1-0.3,3-0.7L300.1,476.4z"/>
			</g>
			<line fill="none" stroke="#000000" x1="126.5" y1="458.1" x2="437.5" y2="458.1"/>
		</g>
		<g enable-background="new    ">
			<path fill="#520700" d="M122.8,339.7c4,0.5,5.1,2.5,5.1,4.5c0,2.9-2.3,4.9-6.1,4.9c-0.8,0-2.3-0.1-4.3-0.1c-1.2,0-2.4,0-3.1,0.1
				v-0.5c1.7-0.1,2-0.3,2-2.2V334c0-1.8-0.3-2.1-2-2.2v-0.5c0.7,0,2,0.1,3.1,0.1c1.6,0,3.2,0,3.8,0c3.5,0,5.3,1.6,5.3,4
				C126.7,337.1,125.7,338.8,122.8,339.7L122.8,339.7z M118.9,334v5.7h1.7c3,0,3.7-1.9,3.7-4.1c0-2.5-1-3.8-3.5-3.8
				C119.2,331.8,118.9,332.2,118.9,334z M125.5,344.1c0-2.6-1.3-4.1-4.5-4.1h-2.1v6.4c0,1.8,0.3,2.1,1.9,2.1
				C124.1,348.6,125.5,347,125.5,344.1z"/>
			<path fill="#520700" d="M153.2,331.3v0.5c-0.7,0.1-1.3,0.8-2,2.2l-4,7.8v4.6c0,1.8,0.3,2.1,2,2.2v0.5c-0.8,0-2-0.1-3.2-0.1
				c-1.3,0-2.5,0-3.2,0.1v-0.5c1.7-0.1,2-0.3,2-2.2v-3.8l-5.1-9.4c-0.7-1.2-1.1-1.4-1.5-1.4v-0.5c0.7,0,1.4,0.1,2.2,0.1
				c1.1,0,2.5,0,3.5-0.1v0.5c-1,0-1.8,0.2-1.8,1c0,0.2,0.1,0.5,0.3,0.9l4.2,8l3.2-6.4c0.5-0.9,0.7-1.6,0.7-2.2c0-1-0.8-1.3-2.2-1.3
				v-0.5c1,0,2,0.1,2.9,0.1C152.2,331.4,152.7,331.3,153.2,331.3z"/>
			<path fill="#520700" d="M195,340c0,5.5-3.3,9.1-9.1,9.1c-0.8,0-2.5-0.1-3.5-0.1c-1.2,0-2.4,0-3.1,0.1v-0.5c1.7-0.1,2-0.3,2-2.2
				V334c0-1.8-0.3-2.1-2-2.2v-0.5c0.6,0,1.5,0.1,2.5,0.1c0.2,0,0.4,0,0.6,0c1.2,0,2.8-0.1,3.8-0.1C192.1,331.3,195,334.4,195,340z
				 M183.6,333.9v12.6c0,1.8,0.3,2.2,1.9,2.2c5.5,0,7-3.1,7-8.6c0-5.7-1.8-8.4-7-8.4C183.9,331.7,183.6,332.2,183.6,333.9z"/>
			<path fill="#520700" d="M220,349.1c-1.7-0.1-4.1-0.1-5.8-0.1c-1.5,0-4.8,0-7.3,0.1v-0.5c1.7-0.1,2-0.3,2-2.2V334
				c0-1.8-0.3-2.1-2-2.2v-0.5c2.5,0.1,5.8,0.1,7.3,0.1c1.5,0,3.7,0,5.3-0.1c-0.1,1.2-0.2,2.4-0.2,3c0,0.6,0,1.2,0.1,1.6h-0.6
				c-0.3-3-0.7-4-3.4-4h-2.1c-1.7,0-2,0.3-2,2.1v5.9h1.7c2.2,0,2.1-2.1,2.3-3.3h0.6c-0.1,1.1-0.1,1.8-0.1,2.4c0,0.5,0,0.8,0,1.2
				c0,0.8,0,1.7,0.1,3.6h-0.6c-0.2-1.6-0.2-3.3-2.4-3.3h-1.7v6.1c0,1.8,0.3,2.1,2,2.1h1.8c3.2,0,3.8-1.1,4.1-4.5h0.6
				c0,0.5-0.1,1.1-0.1,1.8C219.8,346.5,219.9,347.9,220,349.1z"/>
			<path fill="#520700" d="M244.9,332.6c0.2,0.1,0.3,0.2,0.5,0.2c0.3,0,0.6-0.5,0.6-1.5h0.6c-0.1,1.2-0.1,2.9-0.1,5.8H246
				c-0.4-2.1-0.6-2.8-1.3-3.7c-1.1-1.4-2.7-2-4.5-2c-3.3,0-5.5,3.4-5.5,8.9c0,5.6,2.5,8.7,5.7,8.7c1.5,0,3.4-0.6,4.3-1.9
				c0.7-1,0.9-1.9,1.2-4h0.6c0,3.1,0,4.8,0.1,6.1h-0.6c-0.1-1-0.3-1.5-0.6-1.5c-0.1,0-0.3,0.1-0.5,0.2c-1.2,0.9-2.5,1.6-4.7,1.6
				c-4.8,0-8-3.4-8-9.1c0-5.6,3.3-9.4,8-9.4C242.5,330.9,243.8,331.7,244.9,332.6z"/>
			<path fill="#520700" d="M272.1,349.1c-1.7-0.1-4.1-0.1-5.8-0.1c-1.5,0-4.8,0-7.3,0.1v-0.5c1.7-0.1,2-0.3,2-2.2V334
				c0-1.8-0.3-2.1-2-2.2v-0.5c2.5,0.1,5.8,0.1,7.3,0.1c1.5,0,3.7,0,5.3-0.1c-0.1,1.2-0.2,2.4-0.2,3c0,0.6,0,1.2,0.1,1.6h-0.6
				c-0.3-3-0.7-4-3.4-4h-2.1c-1.7,0-2,0.3-2,2.1v5.9h1.7c2.2,0,2.1-2.1,2.3-3.3h0.6c-0.1,1.1-0.1,1.8-0.1,2.4c0,0.5,0,0.8,0,1.2
				c0,0.8,0,1.7,0.1,3.6h-0.6c-0.2-1.6-0.2-3.3-2.4-3.3h-1.7v6.1c0,1.8,0.3,2.1,2,2.1h1.8c3.2,0,3.8-1.1,4.1-4.5h0.6
				c0,0.5-0.1,1.1-0.1,1.8C272,346.5,272,347.9,272.1,349.1z"/>
			<path fill="#520700" d="M304,331.8c-1.7,0.1-2,0.3-2,2.2v12.5c0,1.8,0.3,2.1,2,2.2v0.5c-0.8,0-2-0.1-3.2-0.1
				c-1.3,0-2.5,0-3.2,0.1v-0.5c1.7-0.1,2-0.3,2-2.2V333l-6.1,16.3h-0.4l-6.4-16.4v13.3c0,1.8,0.3,2.4,2.3,2.4v0.5
				c-0.6,0-1.7-0.1-2.6-0.1c-0.8,0-1.8,0-2.3,0.1v-0.5c1.7-0.1,2-0.6,2-2.4V334c0-1.8-0.3-2.1-2-2.2v-0.5c0.6,0,1.5,0.1,2.3,0.1
				c0.7,0,1.6,0,2.2-0.1l5.5,14.6l5.4-14.6h1.2c1.2,0,2.4,0,3.2-0.1V331.8z"/>
			<path fill="#520700" d="M324.1,339.7c4,0.5,5.1,2.5,5.1,4.5c0,2.9-2.3,4.9-6.1,4.9c-0.8,0-2.3-0.1-4.3-0.1c-1.2,0-2.4,0-3.1,0.1
				v-0.5c1.7-0.1,2-0.3,2-2.2V334c0-1.8-0.3-2.1-2-2.2v-0.5c0.7,0,2,0.1,3.1,0.1c1.6,0,3.2,0,3.8,0c3.5,0,5.3,1.6,5.3,4
				C328,337.1,327,338.8,324.1,339.7L324.1,339.7z M320.2,334v5.7h1.7c3,0,3.7-1.9,3.7-4.1c0-2.5-1-3.8-3.5-3.8
				C320.5,331.8,320.2,332.2,320.2,334z M326.8,344.1c0-2.6-1.3-4.1-4.5-4.1h-2.1v6.4c0,1.8,0.3,2.1,1.9,2.1
				C325.4,348.6,326.8,347,326.8,344.1z"/>
			<path fill="#520700" d="M354.1,349.1c-1.7-0.1-4.1-0.1-5.8-0.1c-1.5,0-4.8,0-7.3,0.1v-0.5c1.7-0.1,2-0.3,2-2.2V334
				c0-1.8-0.3-2.1-2-2.2v-0.5c2.5,0.1,5.8,0.1,7.3,0.1c1.5,0,3.7,0,5.3-0.1c-0.1,1.2-0.2,2.4-0.2,3c0,0.6,0,1.2,0.1,1.6h-0.6
				c-0.3-3-0.7-4-3.4-4h-2.1c-1.7,0-2,0.3-2,2.1v5.9h1.7c2.2,0,2.1-2.1,2.3-3.3h0.6c-0.1,1.1-0.1,1.8-0.1,2.4c0,0.5,0,0.8,0,1.2
				c0,0.8,0,1.7,0.1,3.6h-0.6c-0.2-1.6-0.2-3.3-2.4-3.3h-1.7v6.1c0,1.8,0.3,2.1,2,2.1h1.8c3.2,0,3.8-1.1,4.1-4.5h0.6
				c0,0.5-0.1,1.1-0.1,1.8C353.9,346.5,354,347.9,354.1,349.1z"/>
			<path fill="#520700" d="M381.7,347.9c-0.7,1-1.3,1.6-2.7,1.6c-1.3,0-2.2-0.6-2.7-2.7l-0.6-2.5c-0.5-2.1-0.8-3.6-2.8-3.6h-2.4v5.8
				c0,1.8,0.3,2.1,2,2.2v0.5c-0.8,0-2-0.1-3.2-0.1c-1.3,0-2.5,0-3.2,0.1v-0.5c1.7-0.1,2-0.3,2-2.2V334c0-1.8-0.3-2.1-2-2.2v-0.5
				c0.7,0,2,0.1,3.1,0.1c1.6,0,3.2,0,3.8,0c4.1,0,6.1,1.9,6.1,4.4c0,1.7-1.1,4.3-4.9,4.9l0.3,0c2.2,0.4,3.1,1.2,3.5,3.3l0.6,2.6
				c0.3,1.5,0.6,2.1,1.3,2.1c0.6,0,0.9-0.4,1.4-1L381.7,347.9z M370.5,334v6.2h1.7c3.6,0,4.4-1.9,4.4-4.2c0-2.6-1.1-4.2-4.2-4.2
				C370.8,331.8,370.5,332.2,370.5,334z"/>
			<path fill="#520700" d="M413.1,346.5c0,1.6,0.7,2.1,2.4,2.1v0.5c-0.7,0-2.1-0.1-3.5-0.1c-1.6,0-3.1,0.1-3.9,0.1v-0.5
				c1.7,0,2.7-0.4,2.7-2.1v-6.1c0-2.4-0.7-2.7-2.9-2.7v-0.6c2.4,0,3.9-0.4,5.2-1.3V346.5z"/>
			<path fill="#520700" d="M437.6,344.7c0,2.9-2.3,4.8-5.5,4.8c-2.7,0-5.1-1.4-5.1-4.2c0-2.5,1.8-4.3,4.1-5.4
				c-1.7-1.4-3.2-2.8-3.2-5c0-2.4,2-3.9,4.6-3.9c2.3,0,4.2,1.2,4.2,3.5c0,1.9-1.3,3.4-3.2,4.7C435.5,340.5,437.6,342,437.6,344.7z
				 M435.5,345.7c0-2.5-2-4-3.9-5.6c-1.6,1.2-2.2,2.8-2.2,4.7c0,2.1,0.8,4.2,3,4.2C434,349,435.5,347.9,435.5,345.7z M429.9,334.1
				c0,2.1,1.5,3.4,3.2,4.7c1.1-1.1,1.6-2.5,1.6-4c0-2-0.9-3.3-2.4-3.3C430.9,331.4,429.9,332.4,429.9,334.1z"/>
		</g>
		<g>
			<g>
				<path d="M171.1,512.4c0.4,0,0.8,0,1.1-0.1v0.3c-0.2,0.1-0.4,0.2-0.6,0.4s-0.4,0.5-0.6,0.9l-2.2,4.4v2.6c0,0.4,0.1,0.6,0.1,0.8
					c0.1,0.2,0.2,0.3,0.3,0.4c0.2,0.1,0.4,0.1,0.8,0.1v0.3c-0.5-0.1-1.1-0.1-1.8-0.1c-0.8,0-1.4,0-1.8,0.1v-0.3
					c0.4,0,0.6-0.1,0.8-0.1c0.2-0.1,0.3-0.2,0.3-0.4c0.1-0.2,0.1-0.4,0.1-0.8v-2.1l-2.9-5.4c-0.2-0.3-0.3-0.5-0.5-0.7
					c-0.2-0.1-0.3-0.2-0.4-0.2v-0.3c0.4,0.1,0.8,0.1,1.3,0.1c0.9,0,1.6,0,2-0.1v0.3c-0.7,0-1,0.2-1,0.6c0,0.2,0.1,0.3,0.2,0.5
					l2.4,4.5l1.8-3.6c0.3-0.5,0.4-0.9,0.4-1.2c0-0.3-0.1-0.5-0.3-0.6s-0.5-0.2-1-0.2v-0.3C170.1,512.4,170.6,512.4,171.1,512.4z"/>
				<path d="M177.4,521.7c-0.3,0.3-0.6,0.5-0.9,0.7s-0.8,0.3-1.2,0.3c-0.7,0-1.3-0.2-1.8-0.5c-0.5-0.3-0.9-0.8-1.1-1.3
					s-0.4-1.2-0.4-1.9c0-0.8,0.2-1.5,0.4-2.1c0.3-0.6,0.7-1.1,1.1-1.4c0.5-0.3,1.1-0.5,1.7-0.5c0.9,0,1.5,0.3,2,0.8
					c0.5,0.5,0.7,1.3,0.7,2.4h-4.5c-0.1,0.3-0.1,0.6-0.1,0.9c0,0.6,0.1,1.2,0.3,1.6s0.5,0.8,0.8,1.1c0.4,0.3,0.7,0.4,1.1,0.4
					c1,0,1.6-0.5,2.1-1.4l0.3,0.1C177.8,521.1,177.6,521.4,177.4,521.7z M176.3,516.5c-0.1-0.4-0.3-0.7-0.5-0.9
					c-0.2-0.3-0.5-0.4-0.8-0.4s-0.6,0.1-0.8,0.3c-0.3,0.2-0.5,0.5-0.6,0.9c-0.2,0.4-0.3,0.9-0.3,1.4h3.1
					C176.4,517.3,176.4,516.9,176.3,516.5z"/>
				<path d="M179.9,521.2c0.2,0.4,0.3,0.7,0.6,0.9c0.3,0.2,0.6,0.3,1.1,0.3c0.2,0,0.4-0.1,0.6-0.2c0.2-0.1,0.4-0.3,0.5-0.5
					c0.1-0.2,0.2-0.5,0.2-0.8c0-0.3-0.1-0.5-0.2-0.7s-0.3-0.4-0.5-0.6c-0.2-0.2-0.5-0.4-0.9-0.6c-0.5-0.3-0.8-0.6-1.1-0.7
					c-0.3-0.2-0.5-0.4-0.6-0.7c-0.2-0.3-0.3-0.6-0.3-1c0-0.4,0.1-0.8,0.3-1c0.2-0.3,0.5-0.5,0.8-0.6c0.3-0.2,0.7-0.2,1.1-0.2
					c0.4,0,0.6,0.1,0.9,0.2c0.3,0.1,0.5,0.2,0.7,0.4c0.1,0.1,0.2,0.1,0.3,0.1c0.2,0,0.3-0.2,0.3-0.6h0.3c-0.1,0.5-0.1,1.3-0.1,2.5
					h-0.4c-0.1-0.6-0.3-1.1-0.6-1.5c-0.3-0.4-0.8-0.6-1.3-0.6c-0.4,0-0.6,0.1-0.9,0.3c-0.2,0.2-0.3,0.5-0.3,0.8
					c0,0.3,0.1,0.6,0.4,0.8c0.2,0.2,0.5,0.4,0.8,0.6c0.3,0.2,0.6,0.4,0.7,0.4c0.5,0.3,0.8,0.6,1.1,0.8c0.3,0.2,0.5,0.5,0.7,0.8
					c0.2,0.3,0.3,0.6,0.3,1c0,0.4-0.1,0.8-0.3,1.1s-0.5,0.5-0.9,0.7c-0.4,0.2-0.8,0.3-1.2,0.3c-0.4,0-0.8-0.1-1.1-0.2
					c-0.2-0.1-0.4-0.2-0.6-0.4c-0.1-0.1-0.1-0.1-0.2-0.1c-0.2,0-0.3,0.2-0.3,0.6h-0.3c0.1-0.6,0.1-1.5,0.1-2.9h0.3
					C179.6,520.3,179.7,520.8,179.9,521.2z"/>
				<path d="M191.8,512.7c-0.2,0.1-0.3,0.2-0.3,0.4c-0.1,0.2-0.1,0.4-0.1,0.8v7.1c0,0.4,0.1,0.6,0.1,0.8c0.1,0.2,0.2,0.3,0.3,0.4
					c0.2,0.1,0.4,0.1,0.8,0.1v0.3c-0.5-0.1-1-0.1-1.8-0.1c-0.8,0-1.4,0-1.8,0.1v-0.3c0.4,0,0.6-0.1,0.8-0.1c0.2-0.1,0.3-0.2,0.3-0.4
					c0.1-0.2,0.1-0.4,0.1-0.8v-7.1c0-0.4-0.1-0.6-0.1-0.8c-0.1-0.2-0.2-0.3-0.3-0.4c-0.2-0.1-0.4-0.1-0.8-0.1v-0.3
					c0.4,0.1,1,0.1,1.8,0.1c0.8,0,1.4,0,1.8-0.1v0.3C192.2,512.6,192,512.7,191.8,512.7z"/>
				<path d="M206.6,515.1c0.4,0,0.8,0,1.1-0.1v0.3c-0.2,0-0.4,0.1-0.5,0.3c-0.2,0.2-0.3,0.4-0.4,0.8l-2.1,6.1h-0.3l-2.2-5.8l-2,5.8
					h-0.3l-2.4-6.3c-0.2-0.4-0.3-0.6-0.4-0.7s-0.3-0.2-0.4-0.2v-0.3c0.4,0.1,0.8,0.1,1.3,0.1c0.4,0,1-0.1,1.8-0.1v0.3
					c-0.3,0-0.6,0-0.7,0.1s-0.3,0.2-0.3,0.3c-0.1,0.2,0,0.5,0.2,0.8l1.4,4.1l2-5.7h0.3l2.2,5.8l1.3-4.1c0.1-0.3,0.2-0.5,0.2-0.7
					c0-0.2-0.1-0.4-0.3-0.5c-0.2-0.1-0.5-0.2-0.8-0.2V515C205.9,515.1,206.3,515.1,206.6,515.1z"/>
				<path d="M211,521.8c0.1,0.2,0.2,0.3,0.4,0.3c0.2,0.1,0.4,0.1,0.7,0.1v0.3c-0.9-0.1-1.4-0.1-1.7-0.1c-0.3,0-0.9,0-1.7,0.1v-0.3
					c0.3,0,0.5-0.1,0.7-0.1c0.2-0.1,0.3-0.2,0.4-0.3c0.1-0.2,0.1-0.4,0.1-0.6v-4.5c0-0.5-0.1-0.8-0.3-1c-0.2-0.2-0.5-0.3-0.9-0.3
					v-0.3c0.3,0.1,0.6,0.1,0.9,0.1c0.6,0,1.1-0.1,1.5-0.2v6.2C210.9,521.4,210.9,521.6,211,521.8z M210.6,511.7
					c0.2,0.1,0.3,0.2,0.4,0.4c0.1,0.2,0.1,0.3,0.1,0.5c0,0.2-0.1,0.3-0.1,0.5c-0.1,0.2-0.2,0.3-0.4,0.4c-0.2,0.1-0.3,0.1-0.5,0.1
					s-0.3-0.1-0.5-0.1c-0.2-0.1-0.3-0.2-0.4-0.4c-0.1-0.2-0.1-0.3-0.1-0.5c0-0.2,0.1-0.3,0.1-0.5c0.1-0.2,0.2-0.3,0.4-0.4
					c0.2-0.1,0.3-0.1,0.5-0.1C210.3,511.5,210.5,511.6,210.6,511.7z"/>
				<path d="M215.4,521.8c0.1,0.2,0.2,0.3,0.4,0.3c0.2,0.1,0.4,0.1,0.7,0.1v0.3c-0.9-0.1-1.4-0.1-1.7-0.1c-0.3,0-0.9,0-1.7,0.1v-0.3
					c0.3,0,0.5-0.1,0.7-0.1c0.2-0.1,0.3-0.2,0.4-0.3c0.1-0.2,0.1-0.4,0.1-0.6V513c0-0.5-0.1-0.8-0.3-1c-0.2-0.2-0.5-0.3-0.9-0.3
					v-0.3c0.3,0.1,0.6,0.1,0.9,0.1c0.6,0,1.1-0.1,1.5-0.2v9.9C215.3,521.4,215.3,521.6,215.4,521.8z"/>
				<path d="M219.8,521.8c0.1,0.2,0.2,0.3,0.4,0.3c0.2,0.1,0.4,0.1,0.7,0.1v0.3c-0.9-0.1-1.4-0.1-1.7-0.1c-0.3,0-0.9,0-1.7,0.1v-0.3
					c0.3,0,0.5-0.1,0.7-0.1c0.2-0.1,0.3-0.2,0.4-0.3c0.1-0.2,0.1-0.4,0.1-0.6V513c0-0.5-0.1-0.8-0.3-1c-0.2-0.2-0.5-0.3-0.9-0.3
					v-0.3c0.3,0.1,0.6,0.1,0.9,0.1c0.6,0,1.1-0.1,1.5-0.2v9.9C219.7,521.4,219.7,521.6,219.8,521.8z"/>
				<path d="M228.9,515.5c-0.3-0.2-0.6-0.3-1-0.3c-0.7,0-1.1,0.2-1.4,0.5c0.2,0.1,0.4,0.2,0.5,0.3c0.2,0.2,0.2,0.4,0.2,0.6
					c0,0.3-0.1,0.4-0.2,0.6c-0.2,0.2-0.4,0.2-0.6,0.2s-0.4-0.1-0.6-0.3c-0.2-0.2-0.2-0.4-0.2-0.7c0-0.4,0.2-0.7,0.7-1
					c0.3-0.2,0.5-0.3,0.9-0.4c0.4-0.1,0.7-0.2,1.1-0.2c0.4,0,0.7,0.1,1,0.2c0.3,0.1,0.5,0.2,0.7,0.4s0.4,0.5,0.5,0.8
					c0.1,0.3,0.1,0.7,0.1,1.2v4c0,0.3,0.1,0.4,0.1,0.5c0.1,0.1,0.2,0.2,0.4,0.2c0.1,0,0.2,0,0.3-0.1c0.1-0.1,0.2-0.1,0.3-0.2
					l0.2,0.3c-0.2,0.1-0.3,0.2-0.4,0.3c-0.1,0.1-0.3,0.1-0.4,0.2c-0.2,0.1-0.3,0.1-0.5,0.1c-0.5,0-0.8-0.1-1-0.4
					c-0.2-0.3-0.3-0.6-0.3-0.9c-0.3,0.5-0.6,0.8-1,1c-0.4,0.2-0.8,0.3-1.2,0.3c-0.3,0-0.6-0.1-0.9-0.2c-0.3-0.1-0.5-0.3-0.7-0.5
					c-0.2-0.3-0.3-0.6-0.3-0.9c0-0.4,0.1-0.7,0.3-0.9s0.4-0.5,0.8-0.7c0.3-0.2,0.8-0.4,1.3-0.6c0.1-0.1,0.3-0.2,0.7-0.3
					c0.4-0.2,0.6-0.3,0.8-0.5s0.3-0.3,0.3-0.5v-0.9C229.2,516.1,229.1,515.7,228.9,515.5z M228.9,518.4c-0.2,0.1-0.5,0.3-1,0.5
					c-0.3,0.2-0.5,0.3-0.7,0.4c-0.2,0.2-0.4,0.3-0.5,0.6s-0.2,0.5-0.2,0.9c0,0.4,0.1,0.7,0.3,0.9c0.2,0.2,0.5,0.3,0.8,0.3
					c0.6,0,1.2-0.4,1.6-1.1v-2.8C229.2,518.2,229,518.3,228.9,518.4z"/>
				<path d="M236.4,515.1v0.3h-2.1v5.5c0,0.4,0.1,0.8,0.3,0.9c0.2,0.2,0.4,0.3,0.7,0.3c0.3,0,0.6-0.1,0.8-0.4
					c0.2-0.3,0.4-0.6,0.5-1.2l0.3,0.1c-0.3,1.3-0.9,2-1.8,2c-0.3,0-0.6-0.1-0.8-0.1c-0.2-0.1-0.4-0.2-0.6-0.4
					c-0.2-0.2-0.4-0.5-0.4-0.8c-0.1-0.3-0.1-0.7-0.1-1.2v-4.8h-1.4v-0.3h1.4v-2.2c0.5,0,1-0.1,1.3-0.2v2.4H236.4z"/>
				<path d="M241.9,515.1v0.3h-2.1v5.5c0,0.4,0.1,0.8,0.3,0.9c0.2,0.2,0.4,0.3,0.7,0.3s0.6-0.1,0.8-0.4s0.4-0.6,0.5-1.2l0.3,0.1
					c-0.3,1.3-0.9,2-1.8,2c-0.3,0-0.6-0.1-0.8-0.1c-0.2-0.1-0.4-0.2-0.6-0.4c-0.2-0.2-0.4-0.5-0.4-0.8c-0.1-0.3-0.1-0.7-0.1-1.2
					v-4.8h-1.4v-0.3h1.4v-2.2c0.5,0,1-0.1,1.3-0.2v2.4H241.9z"/>
				<path d="M248.4,521.7c-0.3,0.3-0.6,0.5-0.9,0.7c-0.4,0.2-0.8,0.3-1.2,0.3c-0.7,0-1.3-0.2-1.8-0.5c-0.5-0.3-0.9-0.8-1.1-1.3
					s-0.4-1.2-0.4-1.9c0-0.8,0.2-1.5,0.4-2.1c0.3-0.6,0.7-1.1,1.1-1.4c0.5-0.3,1.1-0.5,1.7-0.5c0.9,0,1.5,0.3,2,0.8
					c0.5,0.5,0.7,1.3,0.7,2.4h-4.5c-0.1,0.3-0.1,0.6-0.1,0.9c0,0.6,0.1,1.2,0.3,1.6s0.5,0.8,0.8,1.1s0.7,0.4,1.1,0.4
					c1,0,1.6-0.5,2.1-1.4l0.3,0.1C248.8,521.1,248.7,521.4,248.4,521.7z M247.4,516.5c-0.1-0.4-0.3-0.7-0.5-0.9
					c-0.2-0.3-0.5-0.4-0.8-0.4c-0.3,0-0.6,0.1-0.8,0.3c-0.3,0.2-0.5,0.5-0.6,0.9c-0.2,0.4-0.3,0.9-0.3,1.4h3.1
					C247.6,517.3,247.5,516.9,247.4,516.5z"/>
				<path d="M253.1,515.3c0.4-0.3,0.9-0.4,1.4-0.4c0.7,0,1.2,0.2,1.5,0.6c0.2,0.2,0.3,0.5,0.4,0.7c0.1,0.3,0.1,0.7,0.1,1.2v3.8
					c0,0.3,0.1,0.5,0.1,0.6c0.1,0.2,0.2,0.3,0.4,0.3s0.4,0.1,0.7,0.1v0.3c-0.9-0.1-1.4-0.1-1.7-0.1c-0.3,0-0.8,0-1.6,0.1v-0.3
					c0.3,0,0.4-0.1,0.6-0.1c0.2-0.1,0.3-0.2,0.3-0.3c0.1-0.2,0.1-0.4,0.1-0.6V517c0-0.4-0.1-0.6-0.1-0.9s-0.2-0.4-0.4-0.6
					c-0.2-0.2-0.4-0.2-0.8-0.2c-0.4,0-0.7,0.1-1,0.4c-0.3,0.2-0.6,0.6-0.7,0.9c-0.2,0.4-0.3,0.8-0.3,1.3v3.2c0,0.3,0.1,0.5,0.1,0.6
					c0.1,0.2,0.2,0.3,0.3,0.3c0.2,0.1,0.3,0.1,0.6,0.1v0.3c-0.8-0.1-1.3-0.1-1.6-0.1s-0.9,0-1.7,0.1v-0.3c0.3,0,0.5-0.1,0.7-0.1
					c0.2-0.1,0.3-0.2,0.4-0.3c0.1-0.2,0.1-0.4,0.1-0.6v-4.5c0-0.5-0.1-0.8-0.3-1c-0.2-0.2-0.5-0.3-0.9-0.3v-0.3
					c0.3,0.1,0.6,0.1,0.9,0.1c0.6,0,1.1-0.1,1.5-0.2v1.7C252.3,516.1,252.7,515.6,253.1,515.3z"/>
				<path d="M264.7,521.9c0.2,0.2,0.5,0.3,0.9,0.3v0.3c-0.3-0.1-0.6-0.1-0.9-0.1c-0.6,0-1.1,0.1-1.5,0.2v-1.3
					c-0.2,0.4-0.5,0.8-0.8,1c-0.4,0.2-0.8,0.4-1.3,0.4c-0.6,0-1.1-0.2-1.6-0.4c-0.5-0.3-0.8-0.7-1-1.3s-0.4-1.3-0.4-2.1
					c0-0.8,0.2-1.5,0.4-2.1c0.3-0.6,0.7-1,1.2-1.3s1-0.5,1.6-0.5c0.4,0,0.7,0.1,1,0.2c0.3,0.2,0.6,0.4,0.7,0.7V513
					c0-0.5-0.1-0.8-0.3-1s-0.5-0.3-0.9-0.3v-0.4c0.3,0.1,0.6,0.1,0.9,0.1c0.6,0,1.1-0.1,1.5-0.2v9.7
					C264.5,521.4,264.6,521.7,264.7,521.9z M261.6,515.2c-0.4,0-0.7,0.2-1,0.4c-0.3,0.3-0.5,0.7-0.7,1.2c-0.2,0.5-0.3,1.2-0.3,2
					c0,1.1,0.2,2,0.5,2.6c0.3,0.6,0.8,0.9,1.4,0.9c0.3,0,0.5-0.1,0.7-0.2c0.2-0.1,0.4-0.3,0.6-0.6s0.3-0.6,0.4-0.9v-4.2
					C263,515.6,262.4,515.2,261.6,515.2z"/>
			</g>
			<g>
				<path d="M314.7,512.8c-0.2,0.1-0.3,0.2-0.3,0.4c-0.1,0.2-0.1,0.5-0.1,0.8v8.5H314l-6-9.3v7.6c0,0.4,0.1,0.7,0.1,0.8
					c0.1,0.2,0.2,0.3,0.4,0.4c0.2,0.1,0.5,0.2,0.8,0.2v0.3c-0.4-0.1-0.8-0.1-1.5-0.1c-0.6,0-1,0-1.3,0.1v-0.3c0.3,0,0.6-0.1,0.7-0.2
					c0.2-0.1,0.3-0.2,0.4-0.4c0.1-0.2,0.1-0.5,0.1-0.8v-6.9c0-0.4-0.1-0.6-0.1-0.8c-0.1-0.2-0.2-0.3-0.3-0.4
					c-0.2-0.1-0.4-0.1-0.8-0.1v-0.3c0.3,0.1,0.8,0.1,1.3,0.1c0.4,0,0.8,0,1.1-0.1l5.1,7.8V514c0-0.4-0.1-0.7-0.1-0.8
					c-0.1-0.2-0.2-0.3-0.4-0.4c-0.2-0.1-0.5-0.2-0.8-0.2v-0.3c0.4,0.1,0.8,0.1,1.5,0.1c0.6,0,1,0,1.3-0.1v0.3
					C315.1,512.6,314.9,512.7,314.7,512.8z"/>
				<path d="M321.2,515.3c0.5,0.3,0.9,0.7,1.2,1.3s0.4,1.3,0.4,2.2c0,0.9-0.2,1.6-0.4,2.2c-0.3,0.6-0.7,1-1.2,1.3
					c-0.5,0.3-1,0.4-1.7,0.4c-0.6,0-1.2-0.2-1.7-0.4c-0.5-0.3-0.9-0.7-1.2-1.3s-0.4-1.3-0.4-2.2c0-0.9,0.2-1.6,0.4-2.2
					c0.3-0.6,0.7-1,1.2-1.3s1-0.4,1.7-0.4C320.2,514.9,320.7,515,321.2,515.3z M318.2,516.1c-0.4,0.6-0.5,1.5-0.5,2.7
					c0,1.2,0.2,2.1,0.5,2.7s0.8,0.9,1.4,0.9c0.6,0,1-0.3,1.4-0.9c0.4-0.6,0.5-1.5,0.5-2.7c0-1.2-0.2-2.1-0.5-2.7s-0.8-0.9-1.4-0.9
					C319,515.2,318.5,515.5,318.2,516.1z"/>
				<path d="M330.5,512.7c-0.2,0.1-0.3,0.2-0.3,0.4c-0.1,0.2-0.1,0.4-0.1,0.8v7.1c0,0.4,0.1,0.6,0.1,0.8c0.1,0.2,0.2,0.3,0.3,0.4
					c0.2,0.1,0.4,0.1,0.8,0.1v0.3c-0.5-0.1-1-0.1-1.8-0.1c-0.8,0-1.4,0-1.8,0.1v-0.3c0.4,0,0.6-0.1,0.8-0.1c0.2-0.1,0.3-0.2,0.3-0.4
					c0.1-0.2,0.1-0.4,0.1-0.8v-7.1c0-0.4-0.1-0.6-0.1-0.8c-0.1-0.2-0.2-0.3-0.3-0.4c-0.2-0.1-0.4-0.1-0.8-0.1v-0.3
					c0.4,0.1,1,0.1,1.8,0.1c0.8,0,1.4,0,1.8-0.1v0.3C330.9,512.6,330.7,512.7,330.5,512.7z"/>
				<path d="M347,521.8c0.1,0.2,0.2,0.3,0.4,0.3s0.4,0.1,0.7,0.1v0.3c-0.9-0.1-1.4-0.1-1.7-0.1c-0.3,0-0.8,0-1.6,0.1v-0.3
					c0.3,0,0.4-0.1,0.6-0.1s0.3-0.2,0.3-0.3c0.1-0.2,0.1-0.4,0.1-0.6V517c0-0.4,0-0.7-0.1-0.9s-0.2-0.4-0.3-0.6
					c-0.2-0.2-0.4-0.2-0.7-0.2c-0.4,0-0.7,0.1-1,0.4c-0.3,0.2-0.5,0.6-0.7,0.9c-0.2,0.4-0.3,0.8-0.3,1.3v3.2c0,0.3,0.1,0.5,0.1,0.6
					c0.1,0.2,0.2,0.3,0.4,0.3s0.4,0.1,0.6,0.1v0.3c-0.9-0.1-1.4-0.1-1.7-0.1s-0.8,0-1.6,0.1v-0.3c0.3,0,0.4-0.1,0.6-0.1
					s0.3-0.2,0.3-0.3c0.1-0.2,0.1-0.4,0.1-0.6V517c0-0.4,0-0.7-0.1-0.9s-0.2-0.4-0.3-0.6c-0.2-0.2-0.4-0.2-0.7-0.2
					c-0.4,0-0.7,0.1-1,0.4c-0.3,0.3-0.5,0.6-0.7,0.9c-0.2,0.4-0.3,0.8-0.3,1.3v3.2c0,0.3,0.1,0.5,0.1,0.6c0.1,0.2,0.2,0.3,0.3,0.3
					s0.3,0.1,0.6,0.1v0.3c-0.8-0.1-1.3-0.1-1.6-0.1s-0.9,0-1.7,0.1v-0.3c0.3,0,0.5-0.1,0.7-0.1c0.2-0.1,0.3-0.2,0.4-0.3
					c0.1-0.2,0.1-0.4,0.1-0.6v-4.5c0-0.5-0.1-0.8-0.3-1c-0.2-0.2-0.5-0.3-0.9-0.3v-0.3c0.3,0.1,0.6,0.1,0.9,0.1
					c0.6,0,1.1-0.1,1.5-0.2v1.7c0.3-0.6,0.6-1,1-1.3c0.4-0.3,0.9-0.4,1.4-0.4c0.7,0,1.1,0.2,1.5,0.6c0.3,0.3,0.4,0.7,0.5,1.2
					c0.3-0.6,0.6-1,1-1.3c0.4-0.3,0.9-0.4,1.4-0.4c0.7,0,1.1,0.2,1.5,0.6c0.2,0.2,0.3,0.4,0.4,0.7c0.1,0.3,0.1,0.7,0.1,1.1v3.8
					C346.9,521.4,346.9,521.6,347,521.8z"/>
				<path d="M355,521.9c0.2,0.2,0.5,0.3,0.9,0.3v0.3c-0.3-0.1-0.6-0.1-0.9-0.1c-0.6,0-1.1,0.1-1.5,0.2V521c-0.3,0.6-0.6,1-1,1.3
					c-0.4,0.3-0.9,0.4-1.4,0.4c-0.7,0-1.1-0.2-1.5-0.6c-0.2-0.2-0.3-0.4-0.4-0.7c-0.1-0.3-0.1-0.7-0.1-1.1v-3.6c0-0.5-0.1-0.8-0.3-1
					c-0.2-0.2-0.5-0.3-0.9-0.3v-0.3c0.3,0.1,0.6,0.1,0.9,0.1c0.6,0,1.1-0.1,1.5-0.2v5.6c0,0.4,0,0.7,0.1,0.9s0.2,0.4,0.3,0.6
					c0.2,0.2,0.4,0.2,0.7,0.2c0.4,0,0.7-0.1,1-0.4c0.3-0.2,0.5-0.6,0.7-0.9c0.2-0.4,0.3-0.8,0.3-1.3v-3c0-0.5-0.1-0.8-0.3-1
					c-0.2-0.2-0.5-0.3-0.9-0.3V515c0.3,0.1,0.6,0.1,0.9,0.1c0.6,0,1.1-0.1,1.5-0.2v6C354.7,521.4,354.8,521.7,355,521.9z"/>
				<path d="M357.6,521.2c0.2,0.4,0.3,0.7,0.6,0.9c0.3,0.2,0.6,0.3,1.1,0.3c0.2,0,0.4-0.1,0.6-0.2s0.4-0.3,0.5-0.5s0.2-0.5,0.2-0.8
					c0-0.3-0.1-0.5-0.2-0.7c-0.2-0.2-0.3-0.4-0.5-0.6c-0.2-0.2-0.5-0.4-0.9-0.6c-0.5-0.3-0.8-0.6-1.1-0.7c-0.3-0.2-0.5-0.4-0.6-0.7
					c-0.2-0.3-0.3-0.6-0.3-1c0-0.4,0.1-0.8,0.3-1c0.2-0.3,0.5-0.5,0.8-0.6c0.3-0.2,0.7-0.2,1.1-0.2c0.4,0,0.6,0.1,0.9,0.2
					c0.3,0.1,0.5,0.2,0.7,0.4c0.1,0.1,0.2,0.1,0.3,0.1c0.2,0,0.3-0.2,0.3-0.6h0.3c-0.1,0.5-0.1,1.3-0.1,2.5h-0.3
					c-0.1-0.6-0.3-1.1-0.6-1.5c-0.3-0.4-0.8-0.6-1.3-0.6c-0.4,0-0.6,0.1-0.9,0.3c-0.2,0.2-0.3,0.5-0.3,0.8c0,0.3,0.1,0.6,0.4,0.8
					c0.2,0.2,0.5,0.4,0.8,0.6c0.3,0.2,0.6,0.4,0.7,0.4c0.5,0.3,0.8,0.6,1.1,0.8c0.3,0.2,0.5,0.5,0.7,0.8c0.2,0.3,0.3,0.6,0.3,1
					c0,0.4-0.1,0.8-0.3,1.1c-0.2,0.3-0.5,0.5-0.9,0.7c-0.4,0.2-0.8,0.3-1.2,0.3c-0.4,0-0.8-0.1-1.1-0.2c-0.2-0.1-0.4-0.2-0.6-0.4
					c-0.1-0.1-0.1-0.1-0.2-0.1c-0.2,0-0.3,0.2-0.3,0.6h-0.3c0.1-0.6,0.1-1.5,0.1-2.9h0.3C357.4,520.3,357.5,520.8,357.6,521.2z"/>
				<path d="M367.5,515.1v0.3h-2.1v5.5c0,0.4,0.1,0.8,0.3,0.9c0.2,0.2,0.4,0.3,0.7,0.3s0.6-0.1,0.8-0.4s0.4-0.6,0.5-1.2l0.3,0.1
					c-0.3,1.3-0.9,2-1.8,2c-0.3,0-0.6-0.1-0.8-0.1c-0.2-0.1-0.4-0.2-0.6-0.4c-0.2-0.2-0.4-0.5-0.4-0.8c-0.1-0.3-0.1-0.7-0.1-1.2
					v-4.8h-1.4v-0.3h1.4v-2.2c0.5,0,1-0.1,1.3-0.2v2.4H367.5z"/>
				<path d="M378.4,521.9c0.2,0.2,0.5,0.3,0.9,0.3v0.3c-0.3-0.1-0.6-0.1-0.9-0.1c-0.6,0-1.1,0.1-1.5,0.2v-1.3
					c-0.2,0.4-0.5,0.8-0.8,1c-0.4,0.2-0.8,0.4-1.3,0.4c-0.6,0-1.1-0.2-1.6-0.4c-0.5-0.3-0.8-0.7-1-1.3c-0.3-0.6-0.4-1.3-0.4-2.1
					c0-0.8,0.2-1.5,0.4-2.1c0.3-0.6,0.7-1,1.2-1.3s1-0.5,1.6-0.5c0.4,0,0.7,0.1,1,0.2s0.6,0.4,0.7,0.7V513c0-0.5-0.1-0.8-0.3-1
					s-0.5-0.3-0.9-0.3v-0.4c0.3,0.1,0.6,0.1,0.9,0.1c0.6,0,1.1-0.1,1.5-0.2v9.7C378.2,521.4,378.3,521.7,378.4,521.9z M375.3,515.2
					c-0.4,0-0.7,0.2-1,0.4c-0.3,0.3-0.5,0.7-0.7,1.2c-0.2,0.5-0.3,1.2-0.3,2c0,1.1,0.2,2,0.5,2.6c0.3,0.6,0.8,0.9,1.5,0.9
					c0.3,0,0.5-0.1,0.7-0.2c0.2-0.1,0.4-0.3,0.6-0.6s0.3-0.6,0.4-0.9v-4.2C376.6,515.6,376.1,515.2,375.3,515.2z"/>
				<path d="M385.4,521.7c-0.3,0.3-0.6,0.5-0.9,0.7s-0.8,0.3-1.2,0.3c-0.7,0-1.3-0.2-1.8-0.5s-0.9-0.8-1.1-1.3s-0.4-1.2-0.4-1.9
					c0-0.8,0.2-1.5,0.4-2.1c0.3-0.6,0.7-1.1,1.1-1.4c0.5-0.3,1.1-0.5,1.7-0.5c0.9,0,1.5,0.3,2,0.8c0.5,0.5,0.7,1.3,0.7,2.4h-4.5
					c-0.1,0.3-0.1,0.6-0.1,0.9c0,0.6,0.1,1.2,0.3,1.6c0.2,0.5,0.5,0.8,0.8,1.1s0.7,0.4,1.1,0.4c1,0,1.6-0.5,2.1-1.4l0.3,0.1
					C385.8,521.1,385.6,521.4,385.4,521.7z M384.4,516.5c-0.1-0.4-0.3-0.7-0.5-0.9c-0.2-0.3-0.5-0.4-0.8-0.4s-0.6,0.1-0.8,0.3
					c-0.3,0.2-0.5,0.5-0.6,0.9c-0.2,0.4-0.3,0.9-0.3,1.4h3.1C384.5,517.3,384.5,516.9,384.4,516.5z"/>
				<path d="M392.4,521.7c-0.2,0.3-0.5,0.6-0.9,0.7c-0.4,0.2-0.8,0.3-1.3,0.3c-0.6,0-1.1-0.2-1.6-0.5c-0.5-0.3-0.9-0.8-1.1-1.3
					s-0.4-1.2-0.4-2c0-0.8,0.2-1.5,0.4-2c0.3-0.6,0.7-1.1,1.2-1.4c0.5-0.4,1.1-0.5,1.7-0.5c0.7,0,1.2,0.2,1.7,0.5
					c0.5,0.3,0.7,0.7,0.7,1.1c0,0.3-0.1,0.5-0.2,0.6c-0.2,0.2-0.3,0.2-0.6,0.2c-0.2,0-0.4-0.1-0.6-0.2c-0.2-0.2-0.2-0.3-0.2-0.5
					s0.1-0.4,0.2-0.5c0.1-0.2,0.3-0.2,0.4-0.3c-0.1-0.2-0.3-0.3-0.5-0.4c-0.3-0.1-0.5-0.2-0.8-0.2c-0.4,0-0.7,0.1-1,0.4
					c-0.3,0.2-0.6,0.6-0.8,1.1s-0.3,1.2-0.3,2c0,1.2,0.2,2,0.6,2.6c0.4,0.6,0.9,0.8,1.5,0.8c0.4,0,0.8-0.1,1.2-0.4s0.7-0.6,0.9-1.1
					l0.3,0.1C392.8,521,392.6,521.4,392.4,521.7z"/>
				<path d="M396,521.8c0.1,0.2,0.2,0.3,0.4,0.3s0.4,0.1,0.7,0.1v0.3c-0.9-0.1-1.4-0.1-1.7-0.1c-0.3,0-0.9,0-1.7,0.1v-0.3
					c0.3,0,0.5-0.1,0.6-0.1s0.3-0.2,0.4-0.3c0.1-0.2,0.1-0.4,0.1-0.6V513c0-0.5-0.1-0.8-0.3-1c-0.2-0.2-0.5-0.3-0.9-0.3v-0.3
					c0.3,0.1,0.6,0.1,0.9,0.1c0.6,0,1.1-0.1,1.5-0.2v9.9C395.9,521.4,396,521.6,396,521.8z"/>
				<path d="M400.5,521.8c0.1,0.2,0.2,0.3,0.4,0.3s0.4,0.1,0.7,0.1v0.3c-0.9-0.1-1.4-0.1-1.7-0.1c-0.3,0-0.9,0-1.7,0.1v-0.3
					c0.3,0,0.5-0.1,0.6-0.1s0.3-0.2,0.4-0.3c0.1-0.2,0.1-0.4,0.1-0.6v-4.5c0-0.5-0.1-0.8-0.3-1c-0.2-0.2-0.5-0.3-0.9-0.3v-0.3
					c0.3,0.1,0.6,0.1,0.9,0.1c0.6,0,1.1-0.1,1.5-0.2v6.2C400.4,521.4,400.4,521.6,400.5,521.8z M400,511.7c0.2,0.1,0.3,0.2,0.4,0.4
					c0.1,0.2,0.1,0.3,0.1,0.5c0,0.2-0.1,0.3-0.1,0.5s-0.2,0.3-0.4,0.4c-0.2,0.1-0.3,0.1-0.5,0.1c-0.2,0-0.3-0.1-0.5-0.1
					c-0.2-0.1-0.3-0.2-0.4-0.4c-0.1-0.2-0.1-0.3-0.1-0.5c0-0.2,0.1-0.3,0.1-0.5c0.1-0.2,0.2-0.3,0.4-0.4c0.2-0.1,0.3-0.1,0.5-0.1
					C399.8,511.5,399.9,511.6,400,511.7z"/>
				<path d="M405.8,515.3c0.4-0.3,0.9-0.4,1.4-0.4c0.7,0,1.2,0.2,1.5,0.6c0.2,0.2,0.3,0.5,0.4,0.7c0.1,0.3,0.1,0.7,0.1,1.2v3.8
					c0,0.3,0.1,0.5,0.1,0.6c0.1,0.2,0.2,0.3,0.4,0.3s0.4,0.1,0.7,0.1v0.3c-0.9-0.1-1.4-0.1-1.7-0.1c-0.3,0-0.8,0-1.6,0.1v-0.3
					c0.3,0,0.4-0.1,0.6-0.1c0.2-0.1,0.3-0.2,0.3-0.3c0.1-0.2,0.1-0.4,0.1-0.6V517c0-0.4-0.1-0.6-0.1-0.9c-0.1-0.3-0.2-0.4-0.4-0.6
					c-0.2-0.2-0.4-0.2-0.8-0.2c-0.4,0-0.7,0.1-1,0.4c-0.3,0.2-0.6,0.6-0.7,0.9c-0.2,0.4-0.3,0.8-0.3,1.3v3.2c0,0.3,0.1,0.5,0.1,0.6
					c0.1,0.2,0.2,0.3,0.3,0.3s0.3,0.1,0.6,0.1v0.3c-0.8-0.1-1.3-0.1-1.6-0.1s-0.9,0-1.7,0.1v-0.3c0.3,0,0.5-0.1,0.6-0.1
					s0.3-0.2,0.4-0.3c0.1-0.2,0.1-0.4,0.1-0.6v-4.5c0-0.5-0.1-0.8-0.3-1c-0.2-0.2-0.5-0.3-0.9-0.3v-0.3c0.3,0.1,0.6,0.1,0.9,0.1
					c0.6,0,1.1-0.1,1.5-0.2v1.7C405,516.1,405.4,515.6,405.8,515.3z"/>
				<path d="M416.3,521.7c-0.3,0.3-0.6,0.5-0.9,0.7c-0.4,0.2-0.8,0.3-1.2,0.3c-0.7,0-1.3-0.2-1.8-0.5c-0.5-0.3-0.9-0.8-1.1-1.3
					s-0.4-1.2-0.4-1.9c0-0.8,0.2-1.5,0.4-2.1c0.3-0.6,0.7-1.1,1.1-1.4c0.5-0.3,1.1-0.5,1.7-0.5c0.9,0,1.5,0.3,2,0.8
					c0.5,0.5,0.7,1.3,0.7,2.4h-4.5c-0.1,0.3-0.1,0.6-0.1,0.9c0,0.6,0.1,1.2,0.3,1.6c0.2,0.5,0.5,0.8,0.8,1.1
					c0.4,0.3,0.7,0.4,1.1,0.4c1,0,1.6-0.5,2.1-1.4l0.3,0.1C416.8,521.1,416.6,521.4,416.3,521.7z M415.3,516.5
					c-0.1-0.4-0.3-0.7-0.5-0.9c-0.2-0.3-0.5-0.4-0.8-0.4s-0.6,0.1-0.8,0.3c-0.3,0.2-0.5,0.5-0.6,0.9c-0.2,0.4-0.3,0.9-0.3,1.4h3.1
					C415.4,517.3,415.4,516.9,415.3,516.5z"/>
			</g>
		</g>
	</g>
</g>
</svg>
